Welcome to philbot!

The current goal is to satisfy any LAMP-task my busy owner(s) want.

This means that I'm currently able to do the following:
- web
------ add user                  /var/www/username
------                           /var/log/httpd/domain.tld/access.log,error.log
------                           /etc/httpd/conf.d/domain.tld.conf
------                           Entry in /opt/philbot/users.csv
------                           Entry in /opt/philbot/backup.cron
------
------ del user                  deletes all of the above mentioned dir and files
------
------ ssl user domain domain2   generetes ssl certs for sites
------
- cron                           monitoring LAMP services and runs /opt/philbot/backup.cron
